\BOOKMARK [1][-]{section.1}{INTRODUCTION}{}% 1
\BOOKMARK [2][-]{subsection.1.1}{Visual Markov Chain Monte Carlo}{section.1}% 2
\BOOKMARK [3][-]{subsubsection.1.1.1}{Input}{subsection.1.1}% 3
\BOOKMARK [3][-]{subsubsection.1.1.2}{Output for command line}{subsection.1.1}% 4
\BOOKMARK [1][-]{section.2}{DOWNLOAD}{}% 5
\BOOKMARK [1][-]{section.3}{REQUIREMENTS}{}% 6
\BOOKMARK [1][-]{section.4}{REFERENCES}{}% 7
\BOOKMARK [1][-]{section.5}{INPUT}{}% 8
\BOOKMARK [2][-]{subsection.5.1}{MCMC File}{section.5}% 9
\BOOKMARK [1][-]{section.6}{OUTPUT}{}% 10
\BOOKMARK [1][-]{section.7}{RUNNING}{}% 11
\BOOKMARK [2][-]{subsection.7.1}{Starting the application}{section.7}% 12
\BOOKMARK [1][-]{section.8}{Convergence diagnostics and other analysis tools}{}% 13
\BOOKMARK [2][-]{subsection.8.1}{Alternate to VMCMC!}{section.8}% 14
\BOOKMARK [1][-]{section.9}{OPTIONS}{}% 15
\BOOKMARK [2][-]{subsection.9.1}{General options}{section.9}% 16
\BOOKMARK [1][-]{section.10}{GUI}{}% 17
\BOOKMARK [2][-]{subsection.10.1}{First window}{section.10}% 18
\BOOKMARK [2][-]{subsection.10.2}{Convergence Diagnostics}{section.10}% 19
\BOOKMARK [2][-]{subsection.10.3}{Parameter Trace and Statistics}{section.10}% 20
\BOOKMARK [2][-]{subsection.10.4}{Tabular Representation of Data}{section.10}% 21
\BOOKMARK [2][-]{subsection.10.5}{Tree Parameter View and Properties}{section.10}% 22
\BOOKMARK [2][-]{subsection.10.6}{Consensus Tree Properties}{section.10}% 23
\BOOKMARK [2][-]{subsection.10.7}{Distance between Trees and Multi-Dimensional Scaling}{section.10}% 24
\BOOKMARK [2][-]{subsection.10.8}{Parallel Chain Analysis for Numeric Parameters}{section.10}% 25
\BOOKMARK [2][-]{subsection.10.9}{Parallel Chain Analysis for Tree Parameters using Splits}{section.10}% 26
\BOOKMARK [1][-]{section.11}{TIPS}{}% 27
\BOOKMARK [1][-]{section.12}{EXAMPLES}{}% 28
\BOOKMARK [1][-]{section.13}{FAQ}{}% 29
\BOOKMARK [1][-]{section.14}{Team}{}% 30
